SqueakR • SqueakR
…
The filename column matches the full name of the corresponding data file exactly (including the extension).

Besides these requirements, the order of rows or columns in the sheet can be according to whatever conventions the experimenter likes — files do not have to be in the same order as they appear in the folder containing the data. The pipeline will prompt the user for the link to the Sheets document, the actual sheet number which contains the metadata (usually 1, unless it is added to a separate document), as well as ask the user which column corresponds to each metadata.

From this point, the pipeline will loop through every file automatically, assigning the appropriate metadata based on your Google Sheet, and export the created experiment object (if requested).

Data Visualization

Overview

The SqueakR package offers many tools for visualization of data, and these can be applied to the experiment object we created to inspect our data. This section of the document will go in detail for what each of these visualizations look like. In order to familiarize ourselves with the R syntax, and recap on the structure of the experiment object, we can retrieve the raw data from the data we just added to our experiment by running the following:

experiment$experimental_data[1]$call_data$raw
#> # A tibble: 94 × 17
#>       ID Label Accepted Score `Begin Time (s)` `End Time (s)` `Call Length (s)`
#>    <dbl> <chr> <lgl>    <dbl>            <dbl>          <dbl>             <dbl>
#>  1    12 18    TRUE     0.573             5.36           5.38            0.0152
#>  2    13 12    TRUE     0.649             6.35           6.39            0.0403
#>  3    14 26    TRUE     0.931             6.46           6.51            0.0488
#>  4    15 19    TRUE     0.969             6.59           6.66            0.0787
#>  5    16 26    TRUE     0.885             6.73           6.77            0.0460
#>  6    17 9     TRUE     0.808             6.85           6.90            0.0445
#>  7    18 26    TRUE     0.805             6.97           7.01            0.0421
#>  8    19 2     TRUE     0.804             7.10           7.15            0.0504
#>  9    20 26    TRUE     0.765             7.21           7.24            0.0352
#> 10    21 26    TRUE     0.783             7.31           7.36            0.0552
#> # … with 84 more rows, and 10 more variables:
#> #   `Principal Frequency (kHz)` <dbl>, `Low Freq (kHz)` <dbl>,
#> #   `High Freq (kHz)` <dbl>, `Delta Freq (kHz)` <dbl>,
#> #   `Frequency Standard Deviation (kHz)` <dbl>, `Slope (kHz/s)` <dbl>,
#> #   Sinuosity <dbl>, `Mean Power (dB/Hz)` <dbl>, Tonality <dbl>,
#> #   `Peak Freq (kHz)` <dbl>
…
